<svg xmlns="http://www.w3.org/2000/svg" width="512" height="512" viewBox="0 0 594.149 594.149">
  <path d="M448.8 161.925l-35.7-35.7-160.65 160.65 35.7 35.7 160.65-160.65zm107.099-35.7l-267.75 270.3-107.1-107.1-35.7 35.7 142.8 142.8 306-306-38.25-35.7zM0 325.125l142.8 142.8 35.7-35.7-142.8-142.8-35.7 35.7z" fill="gray"/>
</svg>
