<svg xmlns="http://www.w3.org/2000/svg" viewBox="0 0 60 60">
  <path d="M48.014 42.889l-9.553-4.776C37.56 37.662 37 36.756 37 35.748v-3.381c.229-.28.47-.599.719-.951 1.239-1.75 2.232-3.698 2.954-5.799C42.084 24.97 43 23.575 43 22v-4c0-.963-.36-1.896-1-2.625v-5.319c.056-.55.276-3.824-2.092-6.525C37.854 1.188 34.521 0 30 0s-7.854 1.188-9.908 3.53C17.724 6.231 17.944 9.506 18 10.056v5.319c-.64.729-1 1.662-1 2.625v4c0 1.217.553 2.352 1.497 3.109.916 3.627 2.833 6.36 3.503 7.237v3.309c0 .968-.528 1.856-1.377 2.32l-8.921 4.866C8.801 44.424 7 47.458 7 50.762V54c0 4.746 15.045 6 23 6s23-1.254 23-6v-3.043c0-3.438-1.911-6.53-4.986-8.068zM51 54c0 1.357-7.412 4-21 4S9 55.357 9 54v-3.238c0-2.571 1.402-4.934 3.659-6.164l8.921-4.866c1.493-.815 2.42-2.378 2.42-4.077v-4.019l-.233-.278c-.024-.029-2.475-2.994-3.41-7.065l-.091-.396-.341-.22C19.346 23.303 19 22.676 19 22v-4c0-.561.238-1.084.67-1.475l.33-.297V10l-.009-.131c-.003-.027-.343-2.799 1.605-5.021C23.253 2.958 26.081 2 30 2c3.905 0 6.727.951 8.386 2.828 1.947 2.201 1.625 5.017 1.623 5.041L40 16.228l.33.298c.432.39.67.913.67 1.474v4c0 .873-.572 1.637-1.422 1.899l-.498.153-.16.495c-.669 2.081-1.622 4.003-2.834 5.713-.297.421-.586.794-.837 1.079l-.249.284v4.125c0 1.77.983 3.361 2.566 4.153l9.553 4.776C49.513 45.874 51 48.28 51 50.957V54z"/>
</svg>
